%YAML 1.1
%TAG !u! tag:unity3d.com,2011:
--- !u!1045 &1
EditorBuildSettings:
  m_ObjectHideFlags: 0
  serializedVersion: 2
  m_Scenes:
  - enabled: 1
    path: Assets/Scenes/Intro.unity
    guid: a497684c9ba8d4b5eb4a5005c874ec84
  - enabled: 1
    path: Assets/Scenes/SampleScene.unity
    guid: 2cda990e2423bbf4892e6590ba056729
  - enabled: 1
    path: Assets/Scenes/GameOver.unity
    guid: f5a3525f78d1c4027b9dff985841fb65
  - enabled: 1
    path: Assets/Scenes/EndScene.unity
    guid: 3e8a3c70b43744f7d94ac5b9ab54c49e
  m_configObjects: {}
